{
  "total" : 10,
  "items" : [ {
    "uid" : "7ed2d99f89b67d9cc9367daf632f7278",
    "name" : "BRQ 18a",
    "statistic" : {
      "failed" : 1,
      "broken" : 0,
      "skipped" : 0,
      "passed" : 8,
      "unknown" : 0,
      "total" : 9
    }
  }, {
    "uid" : "833e7508f1d7882f495c7bcd400e1611",
    "name" : "BRQ 104l",
    "statistic" : {
      "failed" : 0,
      "broken" : 0,
      "skipped" : 0,
      "passed" : 2,
      "unknown" : 0,
      "total" : 2
    }
  }, {
    "uid" : "494d0f2908a0e8ca5af4353e21662ede",
    "name" : "BRQ 109",
    "statistic" : {
      "failed" : 0,
      "broken" : 0,
      "skipped" : 0,
      "passed" : 1,
      "unknown" : 0,
      "total" : 1
    }
  } ]
}