[ {
  "uid" : "be93aaec4890e4da",
  "name" : "A registered admin user should be able to successfully  edit a user role into portal.",
  "time" : {
    "start" : 1592278522678,
    "stop" : 1592278593472,
    "duration" : 70794
  },
  "status" : "passed",
  "severity" : "normal"
}, {
  "uid" : "9fa94fe04121e9a",
  "name" : "An creator user can successfully add in data from the web for future use in the map.",
  "time" : {
    "start" : 1592278835559,
    "stop" : 1592278878417,
    "duration" : 42858
  },
  "status" : "passed",
  "severity" : "normal"
}, {
  "uid" : "a0785a1451f75ebe",
  "name" : "An ArcGIS user can successfully Import one of listed GIS file data formats",
  "time" : {
    "start" : 1592277897200,
    "stop" : 1592277969862,
    "duration" : 72662
  },
  "status" : "passed",
  "severity" : "normal"
}, {
  "uid" : "1da985c0b6a80ef2",
  "name" : "An ArcGIS user can successfully Import one of listed GIS file data formats",
  "time" : {
    "start" : 1592277726628,
    "stop" : 1592277768090,
    "duration" : 41462
  },
  "status" : "passed",
  "severity" : "normal"
}, {
  "uid" : "3b0ae4cf362b4736",
  "name" : "An ArcGIS user can successfully Import one of listed GIS file data formats",
  "time" : {
    "start" : 1592277972389,
    "stop" : 1592278044869,
    "duration" : 72480
  },
  "status" : "passed",
  "severity" : "normal"
}, {
  "uid" : "901c4a48b6f838cc",
  "name" : "A user can successfully edit a user profile into portal.",
  "time" : {
    "start" : 1592278596056,
    "stop" : 1592278637686,
    "duration" : 41630
  },
  "status" : "passed",
  "severity" : "normal"
}, {
  "uid" : "bbad95d4b47f0586",
  "name" : "An ArcGIS user can successfully Import one of listed GIS file data formats",
  "time" : {
    "start" : 1592277555001,
    "stop" : 1592277695258,
    "duration" : 140257
  },
  "status" : "passed",
  "severity" : "normal"
}, {
  "uid" : "8f2fdaae5a11f300",
  "name" : "An ArcGIS user can successfully Import one of listed GIS file data formats",
  "time" : {
    "start" : 1592277818588,
    "stop" : 1592277894571,
    "duration" : 75983
  },
  "status" : "passed",
  "severity" : "normal"
}, {
  "uid" : "edd93ad1e3a52082",
  "name" : "An ArcGIS user can successfully Import one of listed GIS file data formats",
  "time" : {
    "start" : 1592278047514,
    "stop" : 1592278128404,
    "duration" : 80890
  },
  "status" : "passed",
  "severity" : "normal"
}, {
  "uid" : "eb90d38445ebba15",
  "name" : "An ArcGIS user can successfully Import one of listed GIS file data formats",
  "time" : {
    "start" : 1592277409072,
    "stop" : 1592277551745,
    "duration" : 142673
  },
  "status" : "passed",
  "severity" : "normal"
}, {
  "uid" : "135ea3367e5a4100",
  "name" : "A registered admin user should be able to successfully  add a user role into portal.",
  "time" : {
    "start" : 1592278640489,
    "stop" : 1592278696165,
    "duration" : 55676
  },
  "status" : "passed",
  "severity" : "normal"
}, {
  "uid" : "5827f3b0ad0193f8",
  "name" : "A registered admin user should be able to successfully  add a user to a group into portal.",
  "time" : {
    "start" : 1592278294916,
    "stop" : 1592278383287,
    "duration" : 88371
  },
  "status" : "passed",
  "severity" : "normal"
}, {
  "uid" : "b8f41e9ee0886430",
  "name" : "A registered admin user should be able to successfully  add a user role into portal.",
  "time" : {
    "start" : 1592278698822,
    "stop" : 1592278754764,
    "duration" : 55942
  },
  "status" : "passed",
  "severity" : "normal"
}, {
  "uid" : "1213f9ad3f608a8",
  "name" : "An creator user can successfully add in data from the web for future use in the contents",
  "time" : {
    "start" : 1592278757280,
    "stop" : 1592278832898,
    "duration" : 75618
  },
  "status" : "passed",
  "severity" : "normal"
}, {
  "uid" : "97c8863e507ca34a",
  "name" : "A registered admin user should be able to successfully delete a user in portal.",
  "time" : {
    "start" : 1592278465207,
    "stop" : 1592278520076,
    "duration" : 54869
  },
  "status" : "passed",
  "severity" : "normal"
}, {
  "uid" : "a1568c96ed33faa0",
  "name" : "UGIS-2905 Validate User can mark up maps with annotation graphics (redline) Portal",
  "time" : {
    "start" : 1592278131334,
    "stop" : 1592278292203,
    "duration" : 160869
  },
  "status" : "passed",
  "severity" : "normal"
}, {
  "uid" : "9c08f049da274ca2",
  "name" : "An ArcGIS user can successfully Import one of listed GIS file data formats",
  "time" : {
    "start" : 1592277698143,
    "stop" : 1592277723943,
    "duration" : 25800
  },
  "status" : "failed",
  "severity" : "normal"
}, {
  "uid" : "86a902474bb23836",
  "name" : "An ArcGIS user can successfully Import one of listed GIS file data formats",
  "time" : {
    "start" : 1592277770666,
    "stop" : 1592277815173,
    "duration" : 44507
  },
  "status" : "passed",
  "severity" : "normal"
}, {
  "uid" : "ad496d6015a6868",
  "name" : "A registered admin user should be able to successfully  add a user to a group into portal from a group tab",
  "time" : {
    "start" : 1592278385955,
    "stop" : 1592278462618,
    "duration" : 76663
  },
  "status" : "passed",
  "severity" : "normal"
} ]