<?xml version="1.0" encoding="UTF-8"?>
<!DOCTYPE suite SYSTEM "http://testng.org/testng-1.0.dtd">
<suite name="Failed suite [Test Suite]" guice-stage="DEVELOPMENT" verbose="0">
  <listeners>
    <listener class-name="utils.Listeners.TestListener"/>
    <listener class-name="utils.Listeners.AnnotationTransformer"/>
  </listeners>
  <test thread-count="5" name="Portal Tests(failed)" verbose="0">
    <classes>
      <class name="tests.BRQ_18a">
        <methods>
          <include name="test_aa_import_data_Successfully_add_data_into_Portal_through_locally_stored_data_in_map" invocation-numbers="0"/>
          <include name="tearDown"/>
          <include name="setup"/>
        </methods>
      </class> <!-- tests.BRQ_18a -->
    </classes>
  </test> <!-- Portal Tests(failed) -->
</suite> <!-- Failed suite [Test Suite] -->
