pages\BasePage.class
pages\components\LayerMenu.class
pages\GroupsPage.class
pages\components\FeatureAttributeTable.class
pages\components\MyGroups.class
pages\components\MyOrganization.class
pages\ProfilePage.class
pages\OrganizationPage.class
pages\components\WebAppLayerMenuOptions.class
pages\components\WebMapPage.class
utils\CustomCondition$1.class
utils\Utils.class
pages\ContentPage.class
pages\MapPage.class
pages\HeaderPage.class
utils\WebDriverController.class
pages\components\FilterMenu.class
pages\WebAppPage.class
pages\components\ChangeStyleMenu.class
utils\CustomCondition.class
utils\LoadProperties.class
