{
  "uid" : "4b4757e66a1912dae1a509f688f20b0f",
  "name" : "categories",
  "children" : [ {
    "name" : "Product defects",
    "children" : [ {
      "name" : "\r\nExpecting:\r\n <true>\r\nto be equal to:\r\n <false>\r\nbut was not.",
      "children" : [ {
        "name" : "An ArcGIS user can successfully Import one of listed GIS file data formats",
        "uid" : "9c08f049da274ca2",
        "parentUid" : "afe08537c2d9a7056132a9f5e3246a81",
        "status" : "failed",
        "time" : {
          "start" : 1592277698143,
          "stop" : 1592277723943,
          "duration" : 25800
        },
        "flaky" : false,
        "newFailed" : false,
        "parameters" : [ "{File Type=CSV, File Name=Tantitha Rd_CSV Load_File.csv, Layer Name=Tantitha Rd}" ]
      } ],
      "uid" : "afe08537c2d9a7056132a9f5e3246a81"
    } ],
    "uid" : "8fb3a91ba5aaf9de24cc8a92edc82b5d"
  } ]
}