{
  "uid" : "ab17fc5a4eb3bca4b216b548c7f9fcbc",
  "name" : "timeline",
  "children" : [ {
    "name" : "Q230197",
    "children" : [ {
      "name" : "33504@Q230197.main(1)",
      "children" : [ {
        "name" : "A registered admin user should be able to successfully delete a user in portal.",
        "uid" : "97c8863e507ca34a",
        "parentUid" : "cf43a33b3407b47bbac79efd148b7db5",
        "status" : "passed",
        "time" : {
          "start" : 1592278465207,
          "stop" : 1592278520076,
          "duration" : 54869
        },
        "flaky" : false,
        "newFailed" : false,
        "parameters" : [ ]
      }, {
        "name" : "An creator user can successfully add in data from the web for future use in the map.",
        "uid" : "9fa94fe04121e9a",
        "parentUid" : "cf43a33b3407b47bbac79efd148b7db5",
        "status" : "passed",
        "time" : {
          "start" : 1592278835559,
          "stop" : 1592278878417,
          "duration" : 42858
        },
        "flaky" : false,
        "newFailed" : false,
        "parameters" : [ ]
      }, {
        "name" : "A registered admin user should be able to successfully  add a user role into portal.",
        "uid" : "b8f41e9ee0886430",
        "parentUid" : "cf43a33b3407b47bbac79efd148b7db5",
        "status" : "passed",
        "time" : {
          "start" : 1592278698822,
          "stop" : 1592278754764,
          "duration" : 55942
        },
        "flaky" : false,
        "newFailed" : false,
        "parameters" : [ ]
      }, {
        "name" : "An ArcGIS user can successfully Import one of listed GIS file data formats",
        "uid" : "eb90d38445ebba15",
        "parentUid" : "cf43a33b3407b47bbac79efd148b7db5",
        "status" : "passed",
        "time" : {
          "start" : 1592277409072,
          "stop" : 1592277551745,
          "duration" : 142673
        },
        "flaky" : false,
        "newFailed" : false,
        "parameters" : [ "{Content Count=2, File Type=CSV, File Name=Streetlight maintenance work orders.csv}" ]
      }, {
        "name" : "An ArcGIS user can successfully Import one of listed GIS file data formats",
        "uid" : "bbad95d4b47f0586",
        "parentUid" : "cf43a33b3407b47bbac79efd148b7db5",
        "status" : "passed",
        "time" : {
          "start" : 1592277555001,
          "stop" : 1592277695258,
          "duration" : 140257
        },
        "flaky" : false,
        "newFailed" : false,
        "parameters" : [ "{Content Count=2, File Type=CSV, File Name=Tantitha Rd_CSV Load_File.csv}" ]
      }, {
        "name" : "A user can successfully edit a user profile into portal.",
        "uid" : "901c4a48b6f838cc",
        "parentUid" : "cf43a33b3407b47bbac79efd148b7db5",
        "status" : "passed",
        "time" : {
          "start" : 1592278596056,
          "stop" : 1592278637686,
          "duration" : 41630
        },
        "flaky" : false,
        "newFailed" : false,
        "parameters" : [ ]
      }, {
        "name" : "An ArcGIS user can successfully Import one of listed GIS file data formats",
        "uid" : "edd93ad1e3a52082",
        "parentUid" : "cf43a33b3407b47bbac79efd148b7db5",
        "status" : "passed",
        "time" : {
          "start" : 1592278047514,
          "stop" : 1592278128404,
          "duration" : 80890
        },
        "flaky" : false,
        "newFailed" : false,
        "parameters" : [ "{Content Count=2, File Type=CSV, File Name=Streetlight maintenance work orders.csv}" ]
      }, {
        "name" : "An ArcGIS user can successfully Import one of listed GIS file data formats",
        "uid" : "3b0ae4cf362b4736",
        "parentUid" : "cf43a33b3407b47bbac79efd148b7db5",
        "status" : "passed",
        "time" : {
          "start" : 1592277972389,
          "stop" : 1592278044869,
          "duration" : 72480
        },
        "flaky" : false,
        "newFailed" : false,
        "parameters" : [ "{Content Count=1, File Type=KMZ, File Name=spatial library.kmz}" ]
      }, {
        "name" : "An ArcGIS user can successfully Import one of listed GIS file data formats",
        "uid" : "86a902474bb23836",
        "parentUid" : "cf43a33b3407b47bbac79efd148b7db5",
        "status" : "passed",
        "time" : {
          "start" : 1592277770666,
          "stop" : 1592277815173,
          "duration" : 44507
        },
        "flaky" : false,
        "newFailed" : false,
        "parameters" : [ "{File Type=Shapefile, File Name=Test_GCS_GDA_1994.zip, Layer Name=Test GCS GDA 1994}" ]
      }, {
        "name" : "A registered admin user should be able to successfully  add a user role into portal.",
        "uid" : "135ea3367e5a4100",
        "parentUid" : "cf43a33b3407b47bbac79efd148b7db5",
        "status" : "passed",
        "time" : {
          "start" : 1592278640489,
          "stop" : 1592278696165,
          "duration" : 55676
        },
        "flaky" : false,
        "newFailed" : false,
        "parameters" : [ ]
      }, {
        "name" : "An creator user can successfully add in data from the web for future use in the contents",
        "uid" : "1213f9ad3f608a8",
        "parentUid" : "cf43a33b3407b47bbac79efd148b7db5",
        "status" : "passed",
        "time" : {
          "start" : 1592278757280,
          "stop" : 1592278832898,
          "duration" : 75618
        },
        "flaky" : false,
        "newFailed" : false,
        "parameters" : [ ]
      }, {
        "name" : "An ArcGIS user can successfully Import one of listed GIS file data formats",
        "uid" : "8f2fdaae5a11f300",
        "parentUid" : "cf43a33b3407b47bbac79efd148b7db5",
        "status" : "passed",
        "time" : {
          "start" : 1592277818588,
          "stop" : 1592277894571,
          "duration" : 75983
        },
        "flaky" : false,
        "newFailed" : false,
        "parameters" : [ "{Content Count=2, File Type=Shapefile, File Name=Depot_final.zip}" ]
      }, {
        "name" : "A registered admin user should be able to successfully  add a user to a group into portal from a group tab",
        "uid" : "ad496d6015a6868",
        "parentUid" : "cf43a33b3407b47bbac79efd148b7db5",
        "status" : "passed",
        "time" : {
          "start" : 1592278385955,
          "stop" : 1592278462618,
          "duration" : 76663
        },
        "flaky" : false,
        "newFailed" : false,
        "parameters" : [ ]
      }, {
        "name" : "UGIS-2905 Validate User can mark up maps with annotation graphics (redline) Portal",
        "uid" : "a1568c96ed33faa0",
        "parentUid" : "cf43a33b3407b47bbac79efd148b7db5",
        "status" : "passed",
        "time" : {
          "start" : 1592278131334,
          "stop" : 1592278292203,
          "duration" : 160869
        },
        "flaky" : false,
        "newFailed" : false,
        "parameters" : [ ]
      }, {
        "name" : "An ArcGIS user can successfully Import one of listed GIS file data formats",
        "uid" : "a0785a1451f75ebe",
        "parentUid" : "cf43a33b3407b47bbac79efd148b7db5",
        "status" : "passed",
        "time" : {
          "start" : 1592277897200,
          "stop" : 1592277969862,
          "duration" : 72662
        },
        "flaky" : false,
        "newFailed" : false,
        "parameters" : [ "{Content Count=1, File Type=KML, File Name=roamesterrain.kml}" ]
      }, {
        "name" : "An ArcGIS user can successfully Import one of listed GIS file data formats",
        "uid" : "9c08f049da274ca2",
        "parentUid" : "cf43a33b3407b47bbac79efd148b7db5",
        "status" : "failed",
        "time" : {
          "start" : 1592277698143,
          "stop" : 1592277723943,
          "duration" : 25800
        },
        "flaky" : false,
        "newFailed" : false,
        "parameters" : [ "{File Type=CSV, File Name=Tantitha Rd_CSV Load_File.csv, Layer Name=Tantitha Rd}" ]
      }, {
        "name" : "An ArcGIS user can successfully Import one of listed GIS file data formats",
        "uid" : "1da985c0b6a80ef2",
        "parentUid" : "cf43a33b3407b47bbac79efd148b7db5",
        "status" : "passed",
        "time" : {
          "start" : 1592277726628,
          "stop" : 1592277768090,
          "duration" : 41462
        },
        "flaky" : false,
        "newFailed" : false,
        "parameters" : [ "{File Type=Shapefile, File Name=Depot_final.zip, Layer Name=Depot final}" ]
      }, {
        "name" : "A registered admin user should be able to successfully  edit a user role into portal.",
        "uid" : "be93aaec4890e4da",
        "parentUid" : "cf43a33b3407b47bbac79efd148b7db5",
        "status" : "passed",
        "time" : {
          "start" : 1592278522678,
          "stop" : 1592278593472,
          "duration" : 70794
        },
        "flaky" : false,
        "newFailed" : false,
        "parameters" : [ ]
      }, {
        "name" : "A registered admin user should be able to successfully  add a user to a group into portal.",
        "uid" : "5827f3b0ad0193f8",
        "parentUid" : "cf43a33b3407b47bbac79efd148b7db5",
        "status" : "passed",
        "time" : {
          "start" : 1592278294916,
          "stop" : 1592278383287,
          "duration" : 88371
        },
        "flaky" : false,
        "newFailed" : false,
        "parameters" : [ ]
      } ],
      "uid" : "cf43a33b3407b47bbac79efd148b7db5"
    } ],
    "uid" : "93d4b153538d97486ccfaceb95d47475"
  } ]
}