tests\BRQ_104h.class
utils\ExtentReports\ExtentManager.class
tests\BaseTest.class
tests\BRQ_9b.class
tests\BRQ_104k.class
tests\BRQ_13.class
utils\ExtentReports\ExtentTestManager.class
tests\BRQ_202_User_Management.class
utils\API\APIUtils.class
tests\BRQ_18a.class
utils\Listeners\Retry.class
tests\Test_004_Existing_Map.class
tests\BRQ_104g.class
tests\webapp\BRQ_104e_104a_104k_104f_9b.class
tests\BRQ_14.class
tests\BRQ_109.class
tests\Test_001_Add_New_Member.class
tests\webapp\BRQ_14_BRQ_202.class
tests\BRQ_109_markup_maps_with_redline.class
tests\BRQ_104h_Create_Edit_Maps.class
utils\Listeners\AnnotationTransformer.class
tests\BRQ_104f.class
tests\BRQ_15.class
tests\BRQ_202.class
tests\BRQ_12.class
tests\RestAssuredAPI.class
utils\Listeners\TestListener.class
tests\BRQ_104e.class
utils\DataProvider\MapDataProviderClass.class
tests\BRQ_18b.class
tests\BRQ_104l.class
